…
### `optimize!`
Solves the optimization model.
```julia
julia> MacroEnergy.optimize!(model)
```

The following set of functions can be used to retrieve the optimal values of some variables in the model.
### [`get_optimal_capacity`](@ref)
Fetches the final capacities for all assets.
```julia
julia> capacity = MacroEnergy.get_optimal_capacity(system);
julia> capacity[!, [:commodity, :resource_id, :value]]
102×3 DataFrame
 Row │ commodity    resource_id                        value    
     │ Symbol       Symbol                             Float64  
─────┼──────────────────────────────────────────────────────────
   1 │ Electricity  battery_SE                          7589.08
   2 │ Electricity  battery_MIDAT                       1232.14
   3 │ Electricity  battery_NE                            -0.0
   4 │ Electricity  pumpedhydro_SE                      6261.98
   5 │ Electricity  pumpedhydro_MIDAT                   5244.0
   6 │ Electricity  pumpedhydro_NE                      3206.9
   7 │ Hydrogen     SE_Electrolyzer                    24638.1
   8 │ Hydrogen     MIDAT_Electrolyzer                 38550.8
  ⋮  │      ⋮                       ⋮                     ⋮
  98 │ Electricity  existing_solar_MIDAT                2974.6
  99 │ Electricity  existing_solar_SE                   8502.2
 100 │ Electricity  existing_solar_NE                      0.0
 101 │ Electricity  existing_wind_NE                    3654.5
 102 │ Electricity  existing_wind_MIDAT                 3231.6
                                                 87 rows omitted
```

### [`get_optimal_new_capacity`](@ref)
Fetches the new capacities for all assets.
```julia
julia> new_capacity = MacroEnergy.get_optimal_new_capacity(system);
julia> new_capacity[!, [:commodity, :resource_id, :value]]
102×3 DataFrame
 Row │ commodity    resource_id                        value    
     │ Symbol       Symbol                             Float64  
─────┼──────────────────────────────────────────────────────────
   1 │ Electricity  battery_SE                          7589.08
   2 │ Electricity  battery_MIDAT                       1232.14
   3 │ Electricity  battery_NE                             0.0
   4 │ Electricity  pumpedhydro_SE                         0.0
   5 │ Electricity  pumpedhydro_MIDAT                      0.0
   6 │ Electricity  pumpedhydro_NE                         0.0
   7 │ Hydrogen     SE_Electrolyzer                    24638.1
   8 │ Hydrogen     MIDAT_Electrolyzer                 38550.8
  ⋮  │      ⋮                       ⋮                     ⋮
  98 │ Electricity  existing_solar_MIDAT                   0.0
  99 │ Electricity  existing_solar_SE                      0.0
 100 │ Electricity  existing_solar_NE                      0.0
 101 │ Electricity  existing_wind_NE                       0.0
 102 │ Electricity  existing_wind_MIDAT                    0.0
                                                 87 rows omitted
```

### [`get_optimal_retired_capacity`](@ref)
Fetches the retired capacities for all assets.
```julia
julia> retired_capacity = MacroEnergy.get_optimal_retired_capacity(system);
julia> retired_capacity[!, [:commodity, :resource_id, :value]]
102×3 DataFrame
 Row │ commodity    resource_id                        value   
     │ Symbol       Symbol                             Float64 
─────┼─────────────────────────────────────────────────────────
   1 │ Electricity  battery_SE                             0.0
   2 │ Electricity  battery_MIDAT                          0.0
   3 │ Electricity  battery_NE                             0.0
   4 │ Electricity  pumpedhydro_SE                         0.0
   5 │ Electricity  pumpedhydro_MIDAT                      0.0
   6 │ Electricity  pumpedhydro_NE                         0.0
   7 │ Hydrogen     SE_Electrolyzer                        0.0
   8 │ Hydrogen     MIDAT_Electrolyzer                     0.0
  ⋮  │      ⋮                       ⋮                     ⋮
  98 │ Electricity  existing_solar_MIDAT                   0.0
  99 │ Electricity  existing_solar_SE                      0.0
 100 │ Electricity  existing_solar_NE                   1629.6
 101 │ Electricity  existing_wind_NE                       0.0
 102 │ Electricity  existing_wind_MIDAT                    0.0
                                                87 rows omitted
```
…
